<svg width="396" height="231" viewBox="0 0 396 231" fill="none" xmlns="http://www.w3.org/2000/svg">
<g filter="url(#filter0_d)">
<circle cx="199.5" cy="61.5" r="61.5" fill="#90D1FF"/>
<circle cx="199.5" cy="61.5" r="61.5" fill="url(#paint0_linear)"/>
</g>
<g filter="url(#filter1_d)">
<circle cx="234.5" cy="131.5" r="79.5" fill="#90D1FF"/>
<circle cx="234.5" cy="131.5" r="79.5" fill="url(#paint1_linear)"/>
</g>
<g filter="url(#filter2_d)">
<circle cx="337.5" cy="131.5" r="43.5" fill="#90D1FF"/>
<circle cx="337.5" cy="131.5" r="43.5" fill="url(#paint2_linear)"/>
</g>
<g filter="url(#filter3_d)">
<circle cx="290.5" cy="73.5" r="62.5" fill="#90D1FF"/>
<circle cx="290.5" cy="73.5" r="62.5" fill="url(#paint3_linear)"/>
</g>
<g filter="url(#filter4_d)">
<circle cx="98.5" cy="99.5" r="93.5" fill="#90D1FF"/>
<circle cx="98.5" cy="99.5" r="93.5" fill="url(#paint4_linear)"/>
</g>
<path d="M85.8104 86.8V96.736H74.3624V86.8H68.5304V112H74.3624V101.668H85.8104V112H91.6424V86.8H85.8104ZM105.048 92.344C101.952 92.344 98.8202 93.172 96.6962 94.684L98.7122 98.608C100.116 97.492 102.24 96.808 104.292 96.808C107.316 96.808 108.756 98.212 108.756 100.624H104.292C98.3882 100.624 95.9762 103 95.9762 106.42C95.9762 109.768 98.6762 112.288 103.212 112.288C106.056 112.288 108.072 111.352 109.116 109.588V112H114.372V100.948C114.372 95.08 110.952 92.344 105.048 92.344ZM104.616 108.508C102.636 108.508 101.448 107.572 101.448 106.168C101.448 104.872 102.276 103.9 104.904 103.9H108.756V105.88C108.108 107.644 106.488 108.508 104.616 108.508ZM143.227 92.632V107.392H136.855V92.632H131.275V107.392H124.831V92.632H119.251V112H148.807V92.632H143.227ZM154.196 112H159.38L168.776 100.48V112H174.356V92.632H169.208L159.776 104.152V92.632H154.196V112ZM203.954 92.632L198.482 105.772L193.046 92.632H187.25L195.638 112.144L195.566 112.324C194.81 114.052 193.946 114.736 192.398 114.736C191.282 114.736 190.094 114.268 189.23 113.512L187.178 117.508C188.438 118.624 190.598 119.272 192.578 119.272C196.07 119.272 198.734 117.868 200.606 113.188L209.354 92.632H203.954ZM220.752 112.288C224.82 112.288 228.024 110.488 229.428 107.392L225.072 105.016C224.028 106.888 222.48 107.68 220.716 107.68C217.872 107.68 215.64 105.7 215.64 102.316C215.64 98.932 217.872 96.952 220.716 96.952C222.48 96.952 224.028 97.78 225.072 99.616L229.428 97.276C228.024 94.108 224.82 92.344 220.752 92.344C214.452 92.344 209.952 96.484 209.952 102.316C209.952 108.148 214.452 112.288 220.752 112.288ZM234.575 92.632L234.287 100.408C234.107 104.08 233.891 107.428 231.227 107.428C230.975 107.428 230.687 107.392 230.399 107.356L230.111 111.964C231.227 112.252 232.163 112.396 233.027 112.396C237.815 112.396 238.931 107.572 239.219 100.66L239.399 97.24H245.519V112H251.135V92.632H234.575ZM270.54 92.632L265.068 105.772L259.632 92.632H253.836L262.224 112.144L262.152 112.324C261.396 114.052 260.532 114.736 258.984 114.736C257.868 114.736 256.68 114.268 255.816 113.512L253.764 117.508C255.024 118.624 257.184 119.272 259.164 119.272C262.656 119.272 265.32 117.868 267.192 113.188L275.94 92.632H270.54ZM294.165 92.632H278.649V112H284.229V97.24H294.165V92.632ZM297.141 112H302.325L311.721 100.48V112H317.301V92.632H312.153L302.721 104.152V92.632H297.141V112Z" fill="white"/>
<defs>
<filter id="filter0_d" x="133" y="0" width="143" height="143" filterUnits="userSpaceOnUse" color-interpolation-filters="sRGB">
<feFlood flood-opacity="0" result="BackgroundImageFix"/>
<feColorMatrix in="SourceAlpha" type="matrix" values="0 0 0 0 0 0 0 0 0 0 0 0 0 0 0 0 0 0 127 0"/>
<feOffset dx="5" dy="10"/>
<feGaussianBlur stdDeviation="5"/>
<feColorMatrix type="matrix" values="0 0 0 0 0 0 0 0 0 0 0 0 0 0 0 0 0 0 0.1 0"/>
<feBlend mode="normal" in2="BackgroundImageFix" result="effect1_dropShadow"/>
<feBlend mode="normal" in="SourceGraphic" in2="effect1_dropShadow" result="shape"/>
</filter>
<filter id="filter1_d" x="150" y="52" width="179" height="179" filterUnits="userSpaceOnUse" color-interpolation-filters="sRGB">
<feFlood flood-opacity="0" result="BackgroundImageFix"/>
<feColorMatrix in="SourceAlpha" type="matrix" values="0 0 0 0 0 0 0 0 0 0 0 0 0 0 0 0 0 0 127 0"/>
<feOffset dx="5" dy="10"/>
<feGaussianBlur stdDeviation="5"/>
<feColorMatrix type="matrix" values="0 0 0 0 0 0 0 0 0 0 0 0 0 0 0 0 0 0 0.1 0"/>
<feBlend mode="normal" in2="BackgroundImageFix" result="effect1_dropShadow"/>
<feBlend mode="normal" in="SourceGraphic" in2="effect1_dropShadow" result="shape"/>
</filter>
<filter id="filter2_d" x="289" y="88" width="107" height="107" filterUnits="userSpaceOnUse" color-interpolation-filters="sRGB">
<feFlood flood-opacity="0" result="BackgroundImageFix"/>
<feColorMatrix in="SourceAlpha" type="matrix" values="0 0 0 0 0 0 0 0 0 0 0 0 0 0 0 0 0 0 127 0"/>
<feOffset dx="5" dy="10"/>
<feGaussianBlur stdDeviation="5"/>
<feColorMatrix type="matrix" values="0 0 0 0 0 0 0 0 0 0 0 0 0 0 0 0 0 0 0.1 0"/>
<feBlend mode="normal" in2="BackgroundImageFix" result="effect1_dropShadow"/>
<feBlend mode="normal" in="SourceGraphic" in2="effect1_dropShadow" result="shape"/>
</filter>
<filter id="filter3_d" x="223" y="11" width="145" height="145" filterUnits="userSpaceOnUse" color-interpolation-filters="sRGB">
<feFlood flood-opacity="0" result="BackgroundImageFix"/>
<feColorMatrix in="SourceAlpha" type="matrix" values="0 0 0 0 0 0 0 0 0 0 0 0 0 0 0 0 0 0 127 0"/>
<feOffset dx="5" dy="10"/>
<feGaussianBlur stdDeviation="5"/>
<feColorMatrix type="matrix" values="0 0 0 0 0 0 0 0 0 0 0 0 0 0 0 0 0 0 0.1 0"/>
<feBlend mode="normal" in2="BackgroundImageFix" result="effect1_dropShadow"/>
<feBlend mode="normal" in="SourceGraphic" in2="effect1_dropShadow" result="shape"/>
</filter>
<filter id="filter4_d" x="0" y="6" width="207" height="207" filterUnits="userSpaceOnUse" color-interpolation-filters="sRGB">
<feFlood flood-opacity="0" result="BackgroundImageFix"/>
<feColorMatrix in="SourceAlpha" type="matrix" values="0 0 0 0 0 0 0 0 0 0 0 0 0 0 0 0 0 0 127 0"/>
<feOffset dx="5" dy="10"/>
<feGaussianBlur stdDeviation="5"/>
<feColorMatrix type="matrix" values="0 0 0 0 0 0 0 0 0 0 0 0 0 0 0 0 0 0 0.1 0"/>
<feBlend mode="normal" in2="BackgroundImageFix" result="effect1_dropShadow"/>
<feBlend mode="normal" in="SourceGraphic" in2="effect1_dropShadow" result="shape"/>
</filter>
<linearGradient id="paint0_linear" x1="261" y1="-2.31656e-05" x2="134.462" y2="3.75432" gradientUnits="userSpaceOnUse">
<stop stop-color="#38ADFF"/>
<stop offset="1" stop-color="#51B7FF"/>
</linearGradient>
<linearGradient id="paint1_linear" x1="314" y1="52" x2="150.427" y2="56.8531" gradientUnits="userSpaceOnUse">
<stop stop-color="#38ADFF"/>
<stop offset="1" stop-color="#51B7FF"/>
</linearGradient>
<linearGradient id="paint2_linear" x1="381" y1="88" x2="291.498" y2="90.6555" gradientUnits="userSpaceOnUse">
<stop stop-color="#38ADFF"/>
<stop offset="1" stop-color="#51B7FF"/>
</linearGradient>
<linearGradient id="paint3_linear" x1="353" y1="11" x2="224.404" y2="14.8154" gradientUnits="userSpaceOnUse">
<stop stop-color="#38ADFF"/>
<stop offset="1" stop-color="#51B7FF"/>
</linearGradient>
<linearGradient id="paint4_linear" x1="192" y1="5.99996" x2="-0.378878" y2="11.7078" gradientUnits="userSpaceOnUse">
<stop stop-color="#38ADFF"/>
<stop offset="1" stop-color="#51B7FF"/>
</linearGradient>
</defs>
</svg>
