<svg width="396" height="231" viewBox="0 0 396 231" fill="none" xmlns="http://www.w3.org/2000/svg">
<g filter="url(#filter0_d)">
<circle cx="199.5" cy="61.5" r="61.5" fill="url(#paint0_linear)"/>
</g>
<g filter="url(#filter1_d)">
<circle cx="234.5" cy="131.5" r="79.5" fill="url(#paint1_linear)"/>
</g>
<g filter="url(#filter2_d)">
<circle cx="337.5" cy="131.5" r="43.5" fill="url(#paint2_linear)"/>
</g>
<g filter="url(#filter3_d)">
<circle cx="290.5" cy="73.5" r="62.5" fill="url(#paint3_linear)"/>
</g>
<g filter="url(#filter4_d)">
<circle cx="98.5" cy="99.5" r="93.5" fill="url(#paint4_linear)"/>
</g>
<path d="M126.936 107.248V86.8H107.568L107.28 94.684C107.028 101.74 106.2 107.14 102.924 107.248H101.916L101.88 117.22H107.28V112H125.064V117.22H130.464V107.248H126.936ZM112.428 95.224L112.536 91.552H121.176V107.248H109.908C111.636 105.196 112.212 100.588 112.428 95.224ZM142.784 112.288C148.94 112.288 153.404 108.148 153.404 102.316C153.404 96.484 148.94 92.344 142.784 92.344C136.628 92.344 132.128 96.484 132.128 102.316C132.128 108.148 136.628 112.288 142.784 112.288ZM142.784 107.68C139.976 107.68 137.816 105.664 137.816 102.316C137.816 98.968 139.976 96.952 142.784 96.952C145.592 96.952 147.716 98.968 147.716 102.316C147.716 105.664 145.592 107.68 142.784 107.68ZM166.482 112.288C170.55 112.288 173.754 110.488 175.158 107.392L170.802 105.016C169.758 106.888 168.21 107.68 166.446 107.68C163.602 107.68 161.37 105.7 161.37 102.316C161.37 98.932 163.602 96.952 166.446 96.952C168.21 96.952 169.758 97.78 170.802 99.616L175.158 97.276C173.754 94.108 170.55 92.344 166.482 92.344C160.182 92.344 155.682 96.484 155.682 102.316C155.682 108.148 160.182 112.288 166.482 112.288ZM194.773 92.632H176.089V97.24H182.641V112H188.221V97.24H194.773V92.632ZM205.29 92.344C202.194 92.344 199.062 93.172 196.938 94.684L198.954 98.608C200.358 97.492 202.482 96.808 204.534 96.808C207.558 96.808 208.998 98.212 208.998 100.624H204.534C198.63 100.624 196.218 103 196.218 106.42C196.218 109.768 198.918 112.288 203.454 112.288C206.298 112.288 208.314 111.352 209.358 109.588V112H214.614V100.948C214.614 95.08 211.194 92.344 205.29 92.344ZM204.858 108.508C202.878 108.508 201.69 107.572 201.69 106.168C201.69 104.872 202.518 103.9 205.146 103.9H208.998V105.88C208.35 107.644 206.73 108.508 204.858 108.508ZM234.289 101.884C236.089 101.056 237.133 99.58 237.133 97.636C237.133 94.468 234.253 92.632 229.393 92.632H219.493V112H229.825C235.153 112 237.709 109.912 237.709 106.492C237.709 104.188 236.557 102.64 234.289 101.884ZM224.641 96.448H228.889C230.833 96.448 231.841 97.096 231.841 98.5C231.841 99.868 230.833 100.588 228.889 100.588H224.641V96.448ZM229.357 108.184H224.641V103.9H229.465C231.517 103.9 232.453 104.584 232.453 106.06C232.453 107.5 231.409 108.184 229.357 108.184ZM255.604 112H262.228L254.992 101.92L261.76 92.632H255.784L250.528 100.156H247.504V92.632H241.888V112H247.504V104.656H250.42L255.604 112ZM272.158 92.344C269.062 92.344 265.93 93.172 263.806 94.684L265.822 98.608C267.226 97.492 269.35 96.808 271.402 96.808C274.426 96.808 275.866 98.212 275.866 100.624H271.402C265.498 100.624 263.086 103 263.086 106.42C263.086 109.768 265.786 112.288 270.322 112.288C273.166 112.288 275.182 111.352 276.226 109.588V112H281.482V100.948C281.482 95.08 278.062 92.344 272.158 92.344ZM271.726 108.508C269.746 108.508 268.558 107.572 268.558 106.168C268.558 104.872 269.386 103.9 272.014 103.9H275.866V105.88C275.218 107.644 273.598 108.508 271.726 108.508Z" fill="#545454"/>
<defs>
<filter id="filter0_d" x="133" y="0" width="143" height="143" filterUnits="userSpaceOnUse" color-interpolation-filters="sRGB">
<feFlood flood-opacity="0" result="BackgroundImageFix"/>
<feColorMatrix in="SourceAlpha" type="matrix" values="0 0 0 0 0 0 0 0 0 0 0 0 0 0 0 0 0 0 127 0"/>
<feOffset dx="5" dy="10"/>
<feGaussianBlur stdDeviation="5"/>
<feColorMatrix type="matrix" values="0 0 0 0 0 0 0 0 0 0 0 0 0 0 0 0 0 0 0.1 0"/>
<feBlend mode="normal" in2="BackgroundImageFix" result="effect1_dropShadow"/>
<feBlend mode="normal" in="SourceGraphic" in2="effect1_dropShadow" result="shape"/>
</filter>
<filter id="filter1_d" x="150" y="52" width="179" height="179" filterUnits="userSpaceOnUse" color-interpolation-filters="sRGB">
<feFlood flood-opacity="0" result="BackgroundImageFix"/>
<feColorMatrix in="SourceAlpha" type="matrix" values="0 0 0 0 0 0 0 0 0 0 0 0 0 0 0 0 0 0 127 0"/>
<feOffset dx="5" dy="10"/>
<feGaussianBlur stdDeviation="5"/>
<feColorMatrix type="matrix" values="0 0 0 0 0 0 0 0 0 0 0 0 0 0 0 0 0 0 0.1 0"/>
<feBlend mode="normal" in2="BackgroundImageFix" result="effect1_dropShadow"/>
<feBlend mode="normal" in="SourceGraphic" in2="effect1_dropShadow" result="shape"/>
</filter>
<filter id="filter2_d" x="289" y="88" width="107" height="107" filterUnits="userSpaceOnUse" color-interpolation-filters="sRGB">
<feFlood flood-opacity="0" result="BackgroundImageFix"/>
<feColorMatrix in="SourceAlpha" type="matrix" values="0 0 0 0 0 0 0 0 0 0 0 0 0 0 0 0 0 0 127 0"/>
<feOffset dx="5" dy="10"/>
<feGaussianBlur stdDeviation="5"/>
<feColorMatrix type="matrix" values="0 0 0 0 0 0 0 0 0 0 0 0 0 0 0 0 0 0 0.1 0"/>
<feBlend mode="normal" in2="BackgroundImageFix" result="effect1_dropShadow"/>
<feBlend mode="normal" in="SourceGraphic" in2="effect1_dropShadow" result="shape"/>
</filter>
<filter id="filter3_d" x="223" y="11" width="145" height="145" filterUnits="userSpaceOnUse" color-interpolation-filters="sRGB">
<feFlood flood-opacity="0" result="BackgroundImageFix"/>
<feColorMatrix in="SourceAlpha" type="matrix" values="0 0 0 0 0 0 0 0 0 0 0 0 0 0 0 0 0 0 127 0"/>
<feOffset dx="5" dy="10"/>
<feGaussianBlur stdDeviation="5"/>
<feColorMatrix type="matrix" values="0 0 0 0 0 0 0 0 0 0 0 0 0 0 0 0 0 0 0.1 0"/>
<feBlend mode="normal" in2="BackgroundImageFix" result="effect1_dropShadow"/>
<feBlend mode="normal" in="SourceGraphic" in2="effect1_dropShadow" result="shape"/>
</filter>
<filter id="filter4_d" x="0" y="6" width="207" height="207" filterUnits="userSpaceOnUse" color-interpolation-filters="sRGB">
<feFlood flood-opacity="0" result="BackgroundImageFix"/>
<feColorMatrix in="SourceAlpha" type="matrix" values="0 0 0 0 0 0 0 0 0 0 0 0 0 0 0 0 0 0 127 0"/>
<feOffset dx="5" dy="10"/>
<feGaussianBlur stdDeviation="5"/>
<feColorMatrix type="matrix" values="0 0 0 0 0 0 0 0 0 0 0 0 0 0 0 0 0 0 0.1 0"/>
<feBlend mode="normal" in2="BackgroundImageFix" result="effect1_dropShadow"/>
<feBlend mode="normal" in="SourceGraphic" in2="effect1_dropShadow" result="shape"/>
</filter>
<linearGradient id="paint0_linear" x1="199.5" y1="0" x2="199.5" y2="123" gradientUnits="userSpaceOnUse">
<stop stop-color="white"/>
<stop offset="1" stop-color="#DBE7F3"/>
</linearGradient>
<linearGradient id="paint1_linear" x1="234.5" y1="52" x2="234.5" y2="211" gradientUnits="userSpaceOnUse">
<stop stop-color="white"/>
<stop offset="1" stop-color="#DBE7F3"/>
</linearGradient>
<linearGradient id="paint2_linear" x1="337.5" y1="88" x2="337.5" y2="175" gradientUnits="userSpaceOnUse">
<stop stop-color="white"/>
<stop offset="1" stop-color="#DBE7F3"/>
</linearGradient>
<linearGradient id="paint3_linear" x1="290.5" y1="11" x2="290.5" y2="136" gradientUnits="userSpaceOnUse">
<stop stop-color="white"/>
<stop offset="1" stop-color="#DBE7F3"/>
</linearGradient>
<linearGradient id="paint4_linear" x1="98.5" y1="6" x2="98.5" y2="193" gradientUnits="userSpaceOnUse">
<stop stop-color="white"/>
<stop offset="1" stop-color="#DBE7F3"/>
</linearGradient>
</defs>
</svg>
